Project 1 611
…
ChickWeight %>%
  group_by(Chick) %>%
  summarise(average=mean(weight))

## # A tibble: 50 x 2
##    Chick average
##    <ord>   <dbl>
##  1 18       37  
##  2 16       49.7
##  3 15       60.1
##  4 13       67.8
##  5 9        81.2
##  6 20       78.4
##  7 10       83.1
##  8 8        92  
##  9 17       92.5
## 10 19       86.8
## # ... with 40 more rows
…
